C:\Users\julio.picazo\Pictures\Saved Pictures\springmvcappv2\src\main\java\com\softtek\academy\javaweb\controller\PersonController.java
C:\Users\julio.picazo\Pictures\Saved Pictures\springmvcappv2\src\main\java\com\softtek\academy\javaweb\beans\Person.java
C:\Users\julio.picazo\Pictures\Saved Pictures\springmvcappv2\src\main\java\com\softtek\academy\javaweb\controller\Dao.java
C:\Users\julio.picazo\Pictures\Saved Pictures\springmvcappv2\src\main\java\com\softtek\academy\javaweb\conexion\Conexion.java
